Waves.vcd
$date
	Fri Dec 20 11:03:08 2024
$end
$version
	GTKWave Analyzer v3.3.100 (w)1999-2019 BSI
$end
$timescale
	1ps
$end
$scope module phase3_cpu_tb $end
$var wire 16 $ PC[15:0] $end
$var wire 1 " clk $end
$scope module DUT $end
$var wire 16 % instruction[15:0] $end
$var wire 1 & ic_miss $end
$var wire 1 ' dc_miss $end
$scope module CacheData $end
$var wire 16 + L2_data_out[15:0] $end
$var wire 1 - L2_valid $end
$var wire 1 / l2_wren $end
$var wire 1 # rst $end
$var wire 1 . l2_en $end
$var wire 1 ( i_wr $end
$var wire 16 * i_data_in[15:0] $end
$var wire 16 ) i_addr_input[15:0] $end
$var wire 1 0 fsmbusy $end
$var wire 16 , L2_addr[15:0] $end
$scope module controller $end
$var wire 1 6 BUSY_trigger $end
$var wire 1 7 miss_detected $end
$var wire 1 8 receiving_data $end
$var wire 1 2 idle_out $end
$var wire 1 1 busy_out $end
$scope module BUSY $end
$var wire 1 4 d $end
$var wire 1 5 wen $end
$var wire 1 3 q $end
$upscope $end
$upscope $end
$upscope $end
$upscope $end
$upscope $end
$enddefinitions $end
$dumpvars
#0
b0 )
0.
17
1#
b0 ,
x5
1"
1&
b0 $
14
0(
0/
x6
x2
1'
08
b0 *
b0 +
x1
x0
0-
x3
b0 %
#50000
0"
#100000
1"
15
02
16
03
01
00
#150000
0"
#200000
1"
#250000
0"
0#
#300000
1"
b10 )
b10 $
#350000
0"
#400000
1"
b100 $
b100 )
#450000
0"
#500000
1"
b110 )
b110 $
#550000
0"
#600000
1"
b1000 $
b1000 )
#650000
0"
#700000
1"
b1010 )
b1010 $
#750000
0"
#800000
1"
b1100 $
b1100 )
#850000
0"
#900000
1"
b1110 )
b1110 $
#950000
0"
#1000000
1"
b10000 $
b10000 )
#1050000
0"
#1100000
1"
b10010 )
b10010 $
#1150000
0"
#1200000
1"
b10100 $
b10100 )
#1250000
0"
#1300000
1"
b10110 )
b10110 $
#1350000
0"
#1400000
1"
b11000 $
b11000 )
#1450000
0"
#1500000
1"
b11010 )
b11010 $
#1550000
0"
#1600000
1"
b11100 $
b11100 )
#1650000
0"
#1700000
1"
b11110 )
b11110 $
#1750000
0"
#1800000
1"
b100000 $
b100000 )
#1850000
0"
#1900000
1"
b100010 )
b100010 $
#1950000
0"
#2000000
1"
b100100 $
b100100 )
#2050000
0"
#2100000
1"
b100110 )
b100110 $
#2150000
0"
#2200000
1"
b101000 $
b101000 )
#2250000
0"
#2300000
1"
b101010 )
b101010 $
#2350000
0"
#2400000
1"
b101100 $
b101100 )
#2450000
0"
#2500000
1"
b101110 )
b101110 $
#2550000
0"
#2600000
1"
b110000 $
b110000 )
#2650000
0"
#2700000
1"
b110010 )
b110010 $
#2750000
0"
#2800000
1"
b110100 $
b110100 )
#2850000
0"
#2900000
1"
b110110 )
b110110 $
#2950000
0"
#3000000
1"
b111000 $
b111000 )
#3050000
0"
#3100000
1"
b111010 )
b111010 $
#3150000
0"
#3200000
1"
b111100 $
b111100 )
#3250000
0"
#3300000
1"
b111110 )
b111110 $
#3350000
0"
#3400000
1"
b1000000 $
b1000000 )
#3450000
0"
#3500000
1"
b1000010 )
b1000010 $
#3550000
0"
#3600000
1"
b1000100 $
b1000100 )
#3650000
0"
#3700000
1"
b1000110 )
b1000110 $
#3750000
0"
#3800000
1"
b1001000 $
b1001000 )
#3850000
0"
#3900000
1"
b1001010 )
b1001010 $
#3950000
0"
#4000000
1"
b1001100 $
b1001100 )
#4050000
0"
#4100000
1"
b1001110 )
b1001110 $
#4150000
0"
#4200000
1"
b1010000 $
b1010000 )
#4250000
0"
#4300000
1"
b1010010 )
b1010010 $
#4350000
0"
#4400000
1"
b1010100 $
b1010100 )
#4450000
0"
#4500000
1"
b1010110 )
b1010110 $
#4550000
0"
#4600000
1"
b1011000 $
b1011000 )
#4650000
0"
#4700000
1"
b1011010 )
b1011010 $
#4750000
0"
#4800000
1"
b1011100 $
b1011100 )
#4850000
0"
#4900000
1"
b1011110 )
b1011110 $
#4950000
0"
#5000000
1"
b1100000 $
b1100000 )
#5050000
0"
#5100000
1"
b1100010 )
b1100010 $
#5150000
0"
#5200000
1"
b1100100 $
b1100100 )
#5250000
0"
#5300000
1"
b1100110 )
b1100110 $
#5350000
0"
#5400000
1"
b1101000 $
b1101000 )
#5450000
0"
#5500000
1"
b1101010 )
b1101010 $
#5550000
0"
#5600000
1"
b1101100 $
b1101100 )
#5650000
0"
#5700000
1"
b1101110 )
b1101110 $
#5750000
0"
#5800000
1"
b1110000 $
b1110000 )
#5850000
0"
#5900000
1"
b1110010 )
b1110010 $
#5950000
0"
#6000000
1"
b1110100 $
b1110100 )
#6050000
0"
#6100000
1"
b1110110 )
b1110110 $
#6150000
0"
#6200000
1"
b1111000 $
b1111000 )
#6250000
0"
#6300000
1"
b1111010 )
b1111010 $
#6350000
0"
#6400000
1"
b1111100 $
b1111100 )
#6450000
0"
#6500000
1"
b1111110 )
b1111110 $
#6550000
0"
#6600000
1"
b10000000 $
b10000000 )
#6650000
0"
#6700000
1"
b10000010 )
b10000010 $
#6750000
0"
#6800000
1"
b10000100 $
b10000100 )
#6850000
0"
#6900000
1"
b10000110 )
b10000110 $
#6950000
0"
#7000000
1"
b10001000 $
b10001000 )
#7050000
0"
#7100000
1"
b10001010 )
b10001010 $
#7150000
0"
#7200000
1"
b10001100 $
b10001100 )
#7250000
0"
#7300000
1"
b10001110 )
b10001110 $
#7350000
0"
#7400000
1"
b10010000 $
b10010000 )
#7450000
0"
#7500000
1"
b10010010 )
b10010010 $
#7550000
0"
#7600000
1"
b10010100 $
b10010100 )
#7650000
0"
#7700000
1"
b10010110 )
b10010110 $
#7750000
0"
#7800000
1"
b10011000 $
b10011000 )
#7850000
0"
#7900000
1"
b10011010 )
b10011010 $
#7950000
0"
#8000000
1"
b10011100 $
b10011100 )
#8050000
0"
#8100000
1"
b10011110 )
b10011110 $
#8150000
0"
#8200000
1"
b10100000 $
b10100000 )
#8250000
0"
#8300000
1"
b10100010 )
b10100010 $
#8350000
0"
#8400000
1"
b10100100 $
b10100100 )
#8450000
0"
#8500000
1"
b10100110 )
b10100110 $
#8550000
0"
#8600000
1"
b10101000 $
b10101000 )
#8650000
0"
#8700000
1"
b10101010 )
b10101010 $
#8750000
0"
#8800000
1"
b10101100 $
b10101100 )
#8850000
0"
#8900000
1"
b10101110 )
b10101110 $
#8950000
0"
#9000000
1"
b10110000 $
b10110000 )
#9050000
0"
#9100000
1"
b10110010 )
b10110010 $
#9150000
0"
#9200000
1"
b10110100 $
b10110100 )
#9250000
0"
#9300000
1"
b10110110 )
b10110110 $
#9350000
0"
#9400000
1"
b10111000 $
b10111000 )
#9450000
0"
#9500000
1"
b10111010 )
b10111010 $
#9550000
0"
#9600000
1"
b10111100 $
b10111100 )
#9650000
0"
#9700000
1"
b10111110 )
b10111110 $
#9750000
0"
#9800000
1"
b11000000 $
b11000000 )
#9850000
0"
#9900000
1"
b11000010 )
b11000010 $
#9950000
0"
#10000000
1"
b11000100 $
b11000100 )
#10050000
0"
#10100000
1"
b11000110 )
b11000110 $
